Windows / Firefox 56 [Desktop]: Mozilla/5.0 (Windows NT 10.0; WOW64; rv:56.0) Gecko/20100101 Firefox/56.0
Linux / Firefox 56 [Desktop]: Mozilla/5.0 (X11; Linux x86_64; rv:56.0) Gecko/20100101 Firefox/56.0
Mac OS X / Safari 10.13 [Desktop]: Mozilla/5.0 (Macintosh; Intel Mac OS X 10_13) AppleWebKit/603.1.13 (KHTML, like Gecko) Version/10.1 Safari/603.1.13
Windows / IE 11 [Desktop]: Mozilla/5.0 (Windows NT 10.0; WOW64; Trident/7.0; rv:11.0) like Gecko
Windows / Edge 15 [Desktop]: Mozilla/5.0 (Windows NT 10.0; Win64; x64) AppleWebKit/537.36 (KHTML, like Gecko) Chrome/52.0.2743.116 Safari/537.36 Edge/15.15063
Windows / Chrome 59 [Desktop]: Mozilla/5.0 (Windows NT 10.0; Win64; x64) AppleWebKit/537.36 (KHTML, like Gecko) Chrome/59.0.3071.109 Safari/537.36

Android Phone / Chrome 59 [Mobile]: Mozilla/5.0 (Linux; Android 7.0; SM-G935P Build/NRD90M) AppleWebKit/537.36 (KHTML, like Gecko) Chrome/59.0.3071.92 Mobile Safari/537.36
Android Tablet / Chrome 57 [Mobile]: Mozilla/5.0 (Linux; Android 4.4.4; Lenovo TAB 2 A10-70L Build/KTU84P) AppleWebKit/537.36 (KHTML, like Gecko) Chrome/57.0.2987.132 Safari/537.36
iPhone / Safari 10.3 [Mobile]: Mozilla/5.0 (iPhone; CPU iPhone OS 10_3_1 like Mac OS X) AppleWebKit/603.1.30 (KHTML, like Gecko) Version/10.0 Mobile/14E304 Safari/602.1
iPad / Safari 10.3 [Mobile]: Mozilla/5.0 (iPad; CPU OS 10_3_3 like Mac OS X) AppleWebKit/603.3.3 (KHTML, like Gecko) Version/10.0 Mobile/14G5037b Safari/602.1

Google Bot [Bot]: Mozilla/5.0 (compatible; Googlebot/2.1; +http://www.google.com/bot.html)
PS4 [Other]: Mozilla/5.0 (PlayStation 4 4.71) AppleWebKit/601.2 (KHTML, like Gecko)
Curl [Other]: curl/7.52.1
Wget [Other]: Wget/1.19.1 (linux-gnu)
